Session Type,Session Number,Session Name,Start Time,End Time,Date
Oral Session,1,Neural Networks and Deep Learning,10:30,12:10,August 1
Poster Spotlights,1,Poster highlights,12:10,12:30,August 1
Oral Session,2,Uncertainty Quantification and Calibration,14:00,15:40,August 1
Poster Spotlights,2,Poster highlights,15:40,16:00,August 1
Oral Session,3,Causality,9:00,10:40,August 2
Oral Session,4,Modelling and Learning,14:00,15:40,August 2
Oral Session,5,Methods for Intractable Learning Problems,10:30,12:10,August 3
Poster Spotlights,3,Poster highlights,12:10,12:30,August 3
Oral Session,6,Probabilistic Circuit Models,14:00,15:40,August 3
Poster Spotlights,4,Poster highlights,15:40,16:00,August 3
